…
    ## `summarise()` has grouped output by 'member_casual'. You can override using the
    ## `.groups` argument.

```r
print(df_analysis_month)
```

    ## # A tibble: 24 × 5
    ## # Groups:   member_casual [2]
    ##    member_casual month    number_of_rides average_trip_time average_distance
    ##    <chr>         <ord>              <int>             <dbl>            <dbl>
    ##  1 casual        January            12605              27.4            1838.
    ##  2 member        January            67523              10.3            1694.
    ##  3 casual        February           15143              24.8            1894.
    ##  4 member        February           74031              10.6            1739.
    ##  5 casual        March              67150              28.4            2123.
    ##  6 member        March             148821              11.8            1946.
    ##  7 casual        April              91889              25.9            2164.
    ##  8 member        April             180657              11.6            1940.
    ##  9 casual        June              292053              25.0            2204.
    ## 10 member        June              328258              13.7            2192.
    ## # … with 14 more rows
```r
df_analysis_week <- df_clean %>%
  group_by(member_casual, week) %>%  #groups by usertype and week of year
  summarise(number_of_rides = n(), average_trip_time = mean(trip_time), average_distance = mean(trip_dist, )) %>%
  arrange(week, member_casual)
```

    ## `summarise()` has grouped output by 'member_casual'. You can override using the
    ## `.groups` argument.

```r
print(df_analysis_week)
```

    ## # A tibble: 104 × 5
    ## # Groups:   member_casual [2]
    ##    member_casual week  number_of_rides average_trip_time average_distance
    ##    <chr>         <chr>           <int>             <dbl>            <dbl>
    ##  1 casual        01               2184             30.4             1670.
    ##  2 member        01              13158             10.2             1645.
    ##  3 casual        02               3750             31.0             2130.
    ##  4 member        02              18905             10.2             1751.
    ##  5 casual        03               3335             17.8             1686.
    ##  6 member        03              18519              9.97            1703.
    ##  7 casual        04               1893             21.2             1681.
    ##  8 member        04              11646             10.9             1626.
    ##  9 casual        05               1985             24.8             1745.
    ## 10 member        05              12745             11.0             1699.
    ## # … with 94 more rows
```r
df_analysis_hour <- df_clean %>%
  group_by(member_casual, hour_start) %>%  #groups by usertype and hour
  summarise(number_of_rides = n(), average_trip_time = mean(trip_time), average_distance = mean(trip_dist, )) %>%
  arrange(hour_start, member_casual)
```

    ## `summarise()` has grouped output by 'member_casual'. You can override using the
    ## `.groups` argument.

```r
print(df_analysis_hour)
```

    ## # A tibble: 48 × 5
    ## # Groups:   member_casual [2]
    ##    member_casual hour_start number_of_rides average_trip_time average_distance
    ##    <chr>              <dbl>           <int>             <dbl>            <dbl>
    ##  1 casual                 0           33310              21.2            1929.
    ##  2 member                 0           25221              12.4            2007.
    ##  3 casual                 1           21320              24.0            1966.
    ##  4 member                 1           15554              12.3            1965.
    ##  5 casual                 2           12672              22.4            2041.
    ##  6 member                 2            8593              12.4            1936.
    ##  7 casual                 3            7199              22.0            2120.
    ##  8 member                 3            5243              12.3            2002.
    ##  9 casual                 4            4660              19.7            2209.
    ## 10 member                 4            6160              12.5            2322.
    ## # … with 38 more rows
…
